class main {
	int a;
    int b;
    int c;
    boolean b;
    a = 10;
    b = 30;
    a = a+10*5/3;
    print (a);
    a = 5;
    label1: print(a);
    a = a + 1;
    if a < 10 then goto label1;
    b = 10;
    label2: print(b);
    b = b + 2;
    if  b < 38 then goto label2;
}
